[
  {
    "id": "field_k30egim6",
    "name": "How would you feel if you could no longer use Macanta?",
    "type": "Select",
    "helpText": "",
    "placeholder": "How would you feel if you could no longer use Macanta?",
    "default": "",
    "required": false,
    "subGroup": "Product/Market Fit Survey",
    "sectionTag": "Macanta",
    "showInTable": true,
    "showOrder": 5,
    "choices": [
      "Very disappointed",
      "Somewhat disappointed",
      "Not disappointed"
    ],
    "contactSpecificField": true,
    "permission": "READ_WRITE",
    "headingText": "",
    "addDivider": false,
    "dataReference": null,
    "fieldApplicableTo": null,
    "fileUpload": {
      "multiple": null,
      "mimeTypes": null
    }
  },
  {
    "id": "field_k30eiqgd",
    "name": "First Login",
    "type": "Date",
    "helpText": "",
    "placeholder": "First Login",
    "default": "",
    "required": false,
    "subGroup": "User Details",
    "sectionTag": "Macanta",
    "showInTable": false,
    "showOrder": 0,
    "choices": null,
    "contactSpecificField": true,
    "permission": "READ_WRITE",
    "headingText": "",
    "addDivider": false,
    "dataReference": null,
    "fieldApplicableTo": null,
    "fileUpload": {
      "multiple": null,
      "mimeTypes": null
    }
  }
]
