{
  "macanta_tier1": {
    "label": "Macanta Tier 1",
    "info1": "Up to 5 Active Users",
    "info2": "100 SMS/text per month",
    "info3": "1 SMS \"from\" number",
    "info4": "License Type: Lifetime Access"
  },
  "macanta_tier2": {
    "label": "Macanta Tier 2",
    "info1": "Up to 15 Active Users",
    "info2": "500 SMS/text per month",
    "info3": "3 SMS \"from\" numbers",
    "info4": "License Type: Lifetime Access"
  },
  "macanta_tier3": {
    "label": "Macanta Tier 3",
    "info1": "Up to 50 Active Users",
    "info2": "1,000 SMS/text per month",
    "info3": "5 SMS \"from\" numbers",
    "info4": "License Type: Lifetime Access"
  },
  "macanta_tier4": {
    "label": "Macanta Tier 4",
    "info1": "Up to 100 Active Users",
    "info2": "3,000 SMS/text per month",
    "info3": "10 SMS \"from\" numbers",
    "info4": "License Type: Lifetime Access"
  },
  "macanta_tier5": {
    "label": "Macanta Tier 5",
    "info1": "Unlimited Active Users",
    "info2": "5,000 SMS/text per month",
    "info3": "20 SMS \"from\" number",
    "info4": "License Type: Lifetime Access"
  }
}
